^D:\DOCUMENTS\TEACHING\PSIPRAKTIKUM13\LOGICBOXNEW\LB_C++\RELEASE\CDL709_2TTL_TDC.OBJ|D:\DOCUMENTS\TEACHING\PSIPRAKTIKUM13\LOGICBOXNEW\LB_C++\RELEASE\CDL709_7ADC_1TTL.OBJ|D:\DOCUMENTS\TEACHING\PSIPRAKTIKUM13\LOGICBOXNEW\LB_C++\RELEASE\CFTDI.OBJ|D:\DOCUMENTS\TEACHING\PSIPRAKTIKUM13\LOGICBOXNEW\LB_C++\RELEASE\CFX2.OBJ|D:\DOCUMENTS\TEACHING\PSIPRAKTIKUM13\LOGICBOXNEW\LB_C++\RELEASE\CLOGICBOX.OBJ|D:\DOCUMENTS\TEACHING\PSIPRAKTIKUM13\LOGICBOXNEW\LB_C++\RELEASE\CSU706.OBJ|D:\DOCUMENTS\TEACHING\PSIPRAKTIKUM13\LOGICBOXNEW\LB_C++\RELEASE\CSU735.OBJ|D:\DOCUMENTS\TEACHING\PSIPRAKTIKUM13\LOGICBOXNEW\LB_C++\RELEASE\DLL_MAIN.OBJ
/OUT:"D:\DOCUMENTS\TEACHING\PSIPRAKTIKUM13\LOGICBOXNEW\LB_C++\RELEASE\LOGICBOX.DLL" /INCREMENTAL:NO /NOLOGO /LIBPATH:C:\Windows\System32 kernel32.lib user32.lib gdi32.lib winspool.lib comdlg32.lib advapi32.lib shell32.lib ole32.lib oleaut32.lib uuid.lib odbc32.lib odbccp32.lib /DEF:"LOGICBOX.DEF" /MANIFEST /MANIFESTUAC:"level='asInvoker' uiAccess='false'" /manifest:embed /DEBUG /PDB:"D:\DOCUMENTS\TEACHING\PSIPRAKTIKUM13\LOGICBOXNEW\LB_C++\RELEASE\LOGICPOOL_DLL.PDB" /SUBSYSTEM:WINDOWS /OPT:REF /OPT:ICF /LTCG /TLBID:1 /DYNAMICBASE /NXCOMPAT /IMPLIB:"D:\DOCUMENTS\TEACHING\PSIPRAKTIKUM13\LOGICBOXNEW\LB_C++\RELEASE\LOGICPOOL_DLL.LIB" /MACHINE:X86 /SAFESEH /DLL RELEASE\DLL_MAIN.OBJRELEASE\CDL709_2TTL_TDC.OBJRELEASE\CDL709_7ADC_1TTL.OBJRELEASE\CFTDI.OBJRELEASE\CFX2.OBJRELEASE\CLOGICBOX.OBJRELEASE\CSU706.OBJRELEASE\CSU735.OBJ
^D:\DOCUMENTS\TEACHING\PSIPRAKTIKUM13\LOGICBOXNEW\LB_C++\RELEASE\CDL709_2TTL_TDC.OBJ|D:\DOCUMENTS\TEACHING\PSIPRAKTIKUM13\LOGICBOXNEW\LB_C++\RELEASE\CDL709_7ADC_1TTL.OBJ|D:\DOCUMENTS\TEACHING\PSIPRAKTIKUM13\LOGICBOXNEW\LB_C++\RELEASE\CFTDI.OBJ|D:\DOCUMENTS\TEACHING\PSIPRAKTIKUM13\LOGICBOXNEW\LB_C++\RELEASE\CFX2.OBJ|D:\DOCUMENTS\TEACHING\PSIPRAKTIKUM13\LOGICBOXNEW\LB_C++\RELEASE\CLOGICBOX.OBJ|D:\DOCUMENTS\TEACHING\PSIPRAKTIKUM13\LOGICBOXNEW\LB_C++\RELEASE\CSU706.OBJ|D:\DOCUMENTS\TEACHING\PSIPRAKTIKUM13\LOGICBOXNEW\LB_C++\RELEASE\CSU735.OBJ|D:\DOCUMENTS\TEACHING\PSIPRAKTIKUM13\LOGICBOXNEW\LB_C++\RELEASE\MAIN_ADC.OBJ
/OUT:"D:\DOCUMENTS\TEACHING\PSIPRAKTIKUM13\LOGICBOXNEW\LB_C++\RELEASE\LOGICPOOL_CPP.EXE" /INCREMENTAL:NO /NOLOGO kernel32.lib user32.lib gdi32.lib winspool.lib comdlg32.lib advapi32.lib shell32.lib ole32.lib oleaut32.lib uuid.lib odbc32.lib odbccp32.lib /MANIFEST /MANIFESTUAC:"level='asInvoker' uiAccess='false'" /manifest:embed /DEBUG /PDB:"D:\DOCUMENTS\TEACHING\PSIPRAKTIKUM13\LOGICBOXNEW\LB_C++\RELEASE\LOGICPOOL_CPP.PDB" /SUBSYSTEM:CONSOLE /OPT:REF /OPT:ICF /LTCG /TLBID:1 /DYNAMICBASE /NXCOMPAT /IMPLIB:"D:\DOCUMENTS\TEACHING\PSIPRAKTIKUM13\LOGICBOXNEW\LB_C++\RELEASE\LOGICPOOL_CPP.LIB" /MACHINE:X86 /SAFESEH RELEASE\CDL709_2TTL_TDC.OBJRELEASE\CDL709_7ADC_1TTL.OBJRELEASE\CFTDI.OBJRELEASE\CFX2.OBJRELEASE\CLOGICBOX.OBJRELEASE\CSU706.OBJRELEASE\CSU735.OBJRELEASE\MAIN_ADC.OBJ
^C:\USERS\ADMIN\DESKTOP\LOGICBOXNEW\LB_C++\RELEASE\CDL709_2TTL_TDC.OBJ|C:\USERS\ADMIN\DESKTOP\LOGICBOXNEW\LB_C++\RELEASE\CDL709_7ADC_1TTL.OBJ|C:\USERS\ADMIN\DESKTOP\LOGICBOXNEW\LB_C++\RELEASE\CFTDI.OBJ|C:\USERS\ADMIN\DESKTOP\LOGICBOXNEW\LB_C++\RELEASE\CFX2.OBJ|C:\USERS\ADMIN\DESKTOP\LOGICBOXNEW\LB_C++\RELEASE\CLOGICBOX.OBJ|C:\USERS\ADMIN\DESKTOP\LOGICBOXNEW\LB_C++\RELEASE\CSU706.OBJ|C:\USERS\ADMIN\DESKTOP\LOGICBOXNEW\LB_C++\RELEASE\CSU735.OBJ|C:\USERS\ADMIN\DESKTOP\LOGICBOXNEW\LB_C++\RELEASE\DLL_MAIN.OBJ
/OUT:"C:\USERS\ADMIN\DESKTOP\LOGICBOXNEW\LB_C++\RELEASE\LOGICBOX.DLL" /INCREMENTAL:NO /NOLOGO /LIBPATH:C:\Windows\System32 kernel32.lib user32.lib gdi32.lib winspool.lib comdlg32.lib advapi32.lib shell32.lib ole32.lib oleaut32.lib uuid.lib odbc32.lib odbccp32.lib /DEF:"LOGICBOX.DEF" /MANIFEST /MANIFESTUAC:"level='asInvoker' uiAccess='false'" /manifest:embed /DEBUG /PDB:"C:\USERS\ADMIN\DESKTOP\LOGICBOXNEW\LB_C++\RELEASE\LOGICPOOL_DLL.PDB" /SUBSYSTEM:WINDOWS /OPT:REF /OPT:ICF /LTCG /TLBID:1 /DYNAMICBASE /NXCOMPAT /IMPLIB:"C:\USERS\ADMIN\DESKTOP\LOGICBOXNEW\LB_C++\RELEASE\LOGICPOOL_DLL.LIB" /MACHINE:X86 /SAFESEH /DLL RELEASE\DLL_MAIN.OBJRELEASE\CDL709_2TTL_TDC.OBJRELEASE\CDL709_7ADC_1TTL.OBJRELEASE\CFTDI.OBJRELEASE\CFX2.OBJRELEASE\CLOGICBOX.OBJRELEASE\CSU706.OBJRELEASE\CSU735.OBJ
