^C:\USERS\ADMIN\DESKTOP\LOGICBOXNEW\LB_C++\RELEASE\CDL709_2TTL_TDC.OBJ|C:\USERS\ADMIN\DESKTOP\LOGICBOXNEW\LB_C++\RELEASE\CDL709_7ADC_1TTL.OBJ|C:\USERS\ADMIN\DESKTOP\LOGICBOXNEW\LB_C++\RELEASE\CFTDI.OBJ|C:\USERS\ADMIN\DESKTOP\LOGICBOXNEW\LB_C++\RELEASE\CFX2.OBJ|C:\USERS\ADMIN\DESKTOP\LOGICBOXNEW\LB_C++\RELEASE\CLOGICBOX.OBJ|C:\USERS\ADMIN\DESKTOP\LOGICBOXNEW\LB_C++\RELEASE\CSU706.OBJ|C:\USERS\ADMIN\DESKTOP\LOGICBOXNEW\LB_C++\RELEASE\CSU735.OBJ|C:\USERS\ADMIN\DESKTOP\LOGICBOXNEW\LB_C++\RELEASE\DLL_MAIN.OBJ
C:\USERS\ADMIN\DESKTOP\LOGICBOXNEW\LB_C++\RELEASE\LOGICBOX.DLL
C:\USERS\ADMIN\DESKTOP\LOGICBOXNEW\LB_C++\RELEASE\LOGICPOOL_DLL.PDB
